<?xml version="1.0" encoding="UTF-8"?>
<svg width="99px" height="94px" viewBox="0 0 99 94" version="1.1" xmlns="http://www.w3.org/2000/svg" xmlns:xlink="http://www.w3.org/1999/xlink">
    <!-- Generator: Sketch 49.1 (51147) - http://www.bohemiancoding.com/sketch -->
    <title>bubblespop</title>
    <desc>Created with Sketch.</desc>
    <defs></defs>
    <g id="Symbols" stroke="none" stroke-width="1" fill="none" fill-rule="evenodd">
        <g id="icons" transform="translate(-940.000000, -3.000000)">
            <g id="bubblespop" transform="translate(942.000000, 3.000000)">
                <path d="M23.5243902,34.6792683 C33.0792683,34.6792683 40.8536585,26.904878 40.8536585,17.3512195 C40.8536585,7.79756098 33.0792683,0.0219512195 23.5243902,0.0219512195 C13.9695122,0.0219512195 6.19634146,7.79634146 6.19634146,17.35 C6.19634146,26.9036585 13.9695122,34.6792683 23.5243902,34.6792683 Z M23.5243902,2.46097561 C31.7341463,2.46097561 38.4146341,9.1402439 38.4146341,17.35 C38.4146341,25.5597561 31.7341463,32.2390244 23.5243902,32.2390244 C15.3146341,32.2390244 8.63536585,25.5609756 8.63536585,17.3512195 C8.63536585,9.14146341 15.3146341,2.46097561 23.5243902,2.46097561 Z" id="Shape" fill="#21409A" fill-rule="nonzero"></path>
                <g id="Group" transform="translate(64.016378, 82.016378) rotate(-55.000000) translate(-64.016378, -82.016378) translate(52.516378, 70.516378)" fill="#21409A" fill-rule="nonzero">
                    <path d="M22.5317073,11.2658537 C22.5317073,5.05365854 17.4768293,0 11.2658537,0 C5.05487805,0 0,5.05365854 0,11.2658537 C0,17.4780488 5.05487805,22.5317073 11.2658537,22.5317073 C17.4768293,22.5317073 22.5317073,17.4780488 22.5317073,11.2658537 Z M2.43780488,11.2658537 C2.43780488,6.39878049 6.39756098,2.43902439 11.2646341,2.43902439 C16.1317073,2.43902439 20.0926829,6.39878049 20.0926829,11.2658537 C20.0926829,16.1329268 16.1329268,20.0926829 11.2658537,20.0926829 C6.39878049,20.0926829 2.43780488,16.1329268 2.43780488,11.2658537 Z" id="Shape-Copy"></path>
                    <path d="M12.1402439,7.2195122 C12.1402439,6.54634146 11.595122,6 10.9207317,6 C8.20731707,6 6,8.20731707 6,10.9207317 C6,11.5939024 6.54512195,12.1402439 7.2195122,12.1402439 C7.89390244,12.1402439 8.43902439,11.5939024 8.43902439,10.9207317 C8.43902439,9.55243902 9.55243902,8.43902439 10.9207317,8.43902439 C11.5939024,8.43902439 12.1402439,7.89268293 12.1402439,7.2195122 Z" id="Shape-Copy-2"></path>
                </g>
                <path d="M14.7317073,16.4731707 C15.4060976,16.4731707 15.9512195,15.9268293 15.9512195,15.2536585 C15.9512195,12.2012195 18.4353659,9.71585366 21.4878049,9.71585366 C22.1621951,9.71585366 22.7073171,9.1695122 22.7073171,8.49634146 C22.7073171,7.82317073 22.1621951,7.27682927 21.4878049,7.27682927 C17.0902439,7.27682927 13.5121951,10.854878 13.5121951,15.2536585 C13.5121951,15.9268293 14.0585366,16.4731707 14.7317073,16.4731707 Z" id="Shape" fill="#21409A" fill-rule="nonzero"></path>
                <path d="M9,48 L11.5581093,61.5157934" id="Path-2" stroke="#21409A" stroke-width="3" stroke-linecap="round"></path>
                <path d="M0,72.9501252 L8.64042033,68" id="Path-3" stroke="#21409A" stroke-width="3" stroke-linecap="round"></path>
                <path d="M17,66.54676 L29.8480652,60" id="Path-4" stroke="#21409A" stroke-width="3" stroke-linecap="round"></path>
                <path d="M14,72 L20.9971808,81.0269225" id="Path-5" stroke="#21409A" stroke-width="3" stroke-linecap="round"></path>
                <path d="M78.4206525,20.9562182 L80.9787618,34.4720116" id="Path-2-Copy" stroke="#21409A" stroke-width="3" stroke-linecap="round" transform="translate(79.699707, 27.714115) rotate(38.000000) translate(-79.699707, -27.714115) "></path>
                <path d="M58.1391843,38.6865805 L66.7796046,33.7364552" id="Path-3-Copy" stroke="#21409A" stroke-width="3" stroke-linecap="round" transform="translate(62.459394, 36.211518) rotate(38.000000) translate(-62.459394, -36.211518) "></path>
                <path d="M81.1846898,46.409223 L94.0327551,39.862463" id="Path-4-Copy" stroke="#21409A" stroke-width="3" stroke-linecap="round" transform="translate(87.608722, 43.135843) rotate(38.000000) translate(-87.608722, -43.135843) "></path>
                <path d="M72.7552555,44.6013549 L67.5312217,54.7578967" id="Path-5-Copy" stroke="#21409A" stroke-width="3" stroke-linecap="round"></path>
            </g>
        </g>
    </g>
</svg>