<?xml version="1.0" encoding="UTF-8"?>
<svg width="116px" height="88px" viewBox="0 0 116 88" version="1.1" xmlns="http://www.w3.org/2000/svg" xmlns:xlink="http://www.w3.org/1999/xlink">
    <!-- Generator: Sketch 49.1 (51147) - http://www.bohemiancoding.com/sketch -->
    <title>butter</title>
    <desc>Created with Sketch.</desc>
    <defs></defs>
    <g id="Symbols" stroke="none" stroke-width="1" fill="none" fill-rule="evenodd">
        <g id="icons" transform="translate(-3.000000, -592.000000)" fill="#21409A" fill-rule="nonzero" stroke="#FFFFFF" stroke-width="0.6">
            <g id="butter" transform="translate(4.000000, 593.000000)">
                <path d="M99.75,86 C107.5875,86 114,79.55 114,71.6666667 C114,69.6958333 112.396875,68.0833333 110.4375,68.0833333 L103.3125,68.0833333 L103.3125,45.6875 C103.3125,33.8625 93.69375,24.1875 81.9375,24.1875 L64.125,24.1875 C63.05625,24.1875 62.34375,23.4708333 62.34375,22.3958333 L62.34375,20.0666667 C65.55,18.275 67.6875,14.6916667 67.6875,10.75 C67.6875,4.8375 62.878125,0 57,0 C51.121875,0 46.3125,4.8375 46.3125,10.75 C46.3125,14.6916667 48.45,18.275 51.65625,20.0666667 L51.65625,22.3958333 C51.65625,23.4708333 50.9455313,24.1875 49.875,24.1875 L32.0625,24.1875 C20.3044688,24.1875 10.6875,33.8625 10.6875,45.6875 L10.6875,68.0833333 L3.5625,68.0833333 C1.60134375,68.0833333 0,69.6958333 0,71.6666667 C0,79.55 6.41428125,86 14.25,86 L99.75,86 Z M81.9375,27.7708333 C91.734375,27.7708333 99.75,35.8333333 99.75,45.6875 L99.75,68.0833333 L14.25,68.0833333 L14.25,45.6875 C14.25,35.8333333 22.265625,27.7708333 32.0625,27.7708333 L81.9375,27.7708333 Z M110.4375,71.6666667 C110.4375,77.5791667 105.628125,82.4166667 99.75,82.4166667 L14.25,82.4166667 C8.371875,82.4166667 3.5625,77.5791667 3.5625,71.6666667 L110.4375,71.6666667 Z M58.78125,22.3958333 C58.78125,23.4708333 58.0705313,24.1875 57,24.1875 C55.9294687,24.1875 55.21875,23.4708333 55.21875,22.3958333 L55.21875,18.9916667 C55.21875,17.9166667 54.684375,17.5583333 53.6174063,17.0208333 C51.8361563,16.125 49.875,13.7958333 49.875,10.75 C49.875,6.80833333 53.08125,3.58333333 57,3.58333333 C60.91875,3.58333333 64.125,6.80833333 64.125,10.75 C64.125,13.7958333 62.165625,16.125 60.384375,17.0208333 C59.315625,17.5583333 58.78125,17.9166667 58.78125,18.9916667 L58.78125,22.3958333 Z" id="Shape"></path>
            </g>
        </g>
    </g>
</svg>