<?xml version="1.0" encoding="UTF-8"?>
<svg width="102px" height="100px" viewBox="0 0 102 100" version="1.1" xmlns="http://www.w3.org/2000/svg" xmlns:xlink="http://www.w3.org/1999/xlink">
    <!-- Generator: Sketch 49.1 (51147) - http://www.bohemiancoding.com/sketch -->
    <title>round</title>
    <desc>Created with Sketch.</desc>
    <defs></defs>
    <g id="Symbols" stroke="none" stroke-width="1" fill="none" fill-rule="evenodd">
        <g id="icons" transform="translate(-626.000000, -4.000000)" fill="#21409A" fill-rule="nonzero" stroke="#21409A" stroke-width="0.5">
            <g id="round" transform="translate(627.000000, 5.000000)">
                <path d="M97.4317073,58.0207317 C97.0914634,57.4390244 96.3426829,57.2426829 95.7621951,57.5865854 L91.6963415,59.9695122 C91.1158537,60.3097561 90.9207317,61.0573171 91.2609756,61.6378049 C91.6012195,62.2182927 92.3487805,62.4134146 92.9304878,62.0719512 L94.7670732,60.995122 C89.3609756,81.2731707 71.0853659,95.3634146 50,95.3634146 C28.6158537,95.3634146 10.1109756,80.8768293 5.00121951,60.1353659 C4.8402439,59.4804878 4.1804878,59.0780488 3.52560976,59.2439024 C2.87195122,59.404878 2.47195122,60.0658537 2.63292683,60.7195122 C8.01219512,82.5536585 27.4902439,97.802439 50,97.802439 C72.0292683,97.802439 91.1463415,83.1926829 96.995122,62.102439 L97.7097561,63.3219512 C97.9365854,63.7085366 98.345122,63.9243902 98.7634146,63.9243902 C98.9731707,63.9243902 99.1853659,63.8707317 99.3792683,63.7560976 C99.9597561,63.4158537 100.154878,62.6682927 99.8146341,62.0878049 L97.4317073,58.0207317 Z" id="Shape"></path>
                <path d="M3.28170732,40.4195122 C3.4597561,40.4195122 3.63902439,40.3817073 3.8097561,40.2987805 L8.05609756,38.2560976 C8.66341463,37.9646341 8.91829268,37.2353659 8.62682927,36.6280488 C8.33414634,36.0231707 7.60609756,35.7670732 6.99878049,36.0573171 L5.2695122,36.8890244 C10.7195122,16.6817073 28.954878,2.65731707 50,2.65731707 C71.4060976,2.65731707 89.9146341,17.1634146 95.0097561,37.9317073 C95.1463415,38.4878049 95.645122,38.8609756 96.1926829,38.8609756 C96.2890244,38.8609756 96.3865854,38.85 96.4841463,38.8268293 C97.1378049,38.6658537 97.5390244,38.004878 97.3780488,37.3512195 C92.0170732,15.4878049 72.5341463,0.218292683 50,0.218292683 C27.9865854,0.218292683 8.89146341,14.795122 3.02195122,35.8512195 L2.33536585,34.4243902 C2.04390244,33.8170732 1.31463415,33.5621951 0.708536585,33.8536585 C0.101219512,34.1463415 -0.153658537,34.8756098 0.13902439,35.4817073 L2.18292683,39.7268293 C2.39146341,40.1658537 2.82804878,40.4195122 3.28170732,40.4195122 Z" id="Shape"></path>
            </g>
        </g>
    </g>
</svg>