<?xml version="1.0" encoding="UTF-8"?>
<svg width="81px" height="81px" viewBox="0 0 81 81" version="1.1" xmlns="http://www.w3.org/2000/svg" xmlns:xlink="http://www.w3.org/1999/xlink">
    <!-- Generator: Sketch 49.1 (51147) - http://www.bohemiancoding.com/sketch -->
    <title>separate</title>
    <desc>Created with Sketch.</desc>
    <defs></defs>
    <g id="Symbols" stroke="none" stroke-width="1" fill="none" fill-rule="evenodd" stroke-linecap="round">
        <g id="icons" transform="translate(-4.000000, -304.000000)" stroke="#21409A" stroke-width="3">
            <g id="separate" transform="translate(-4.000000, 297.000000)">
                <path d="M72.5691874,4.09404792 L72.5691874,43.4396423" id="Path-6-Copy-2" transform="translate(73.369187, 24.130813) rotate(-315.000000) translate(-73.369187, -24.130813) "></path>
                <path d="M23.8308126,52.8324227 L23.8308126,92.1780171" id="Path-6-Copy-3" transform="translate(24.630813, 72.869187) rotate(-315.000000) translate(-24.630813, -72.869187) "></path>
                <path d="M67.8130834,48.008363 L28.5396827,48.008363" id="Path-6-Copy-3" transform="translate(48.176383, 48.809834) rotate(-315.000000) translate(-48.176383, -48.809834) "></path>
                <polyline id="Path-6" stroke-linejoin="round" transform="translate(16.871588, 79.752178) rotate(-315.000000) translate(-16.871588, -79.752178) " points="3.89117924 70.2000387 16.5344308 89.3043165 29.8519965 70.2000387"></polyline>
                <polyline id="Path-6" stroke-linejoin="round" transform="translate(80.344820, 16.278945) scale(1, -1) rotate(315.000000) translate(-80.344820, -16.278945) " points="67.3644115 6.72680644 80.0076631 25.8310843 93.3252287 6.72680644"></polyline>
            </g>
        </g>
    </g>
</svg>