<?xml version="1.0" encoding="UTF-8"?>
<svg width="270px" height="51px" viewBox="0 0 270 51" version="1.1" xmlns="http://www.w3.org/2000/svg" xmlns:xlink="http://www.w3.org/1999/xlink">
    <!-- Generator: Sketch 49.1 (51147) - http://www.bohemiancoding.com/sketch -->
    <title>logo</title>
    <desc>Created with Sketch.</desc>
    <defs>
        <polygon id="path-1" points="0 0.0006 269.56305 0.0006 269.56305 50.6001 0 50.6001"></polygon>
    </defs>
    <g id="logo" stroke="none" stroke-width="1" fill="none" fill-rule="evenodd">
        <g id="Page-1">
            <mask id="mask-2" fill="white">
                <use xlink:href="#path-1"></use>
            </mask>
            <g id="Clip-2"></g>
            <path d="M98.63055,35.4381 C96.13905,35.4381 94.11855,33.4176 94.11855,30.9276 C94.11855,28.4361 96.13905,26.4156 98.63055,26.4156 C101.12205,26.4156 103.14255,28.4361 103.14255,30.9276 C103.14255,33.4176 101.12205,35.4381 98.63055,35.4381 Z M98.63055,20.4486 C92.84505,20.4486 88.15455,25.1406 88.15455,30.9276 C88.15455,36.7131 92.84505,41.4051 98.63055,41.4051 C104.41755,41.4051 109.10805,36.7131 109.10805,30.9276 C109.10805,25.1406 104.41755,20.4486 98.63055,20.4486 Z M155.50155,35.4381 C153.01005,35.4381 150.98955,33.4176 150.98955,30.9276 C150.98955,28.4361 153.01005,26.4156 155.50155,26.4156 C157.99305,26.4156 160.01355,28.4361 160.01355,30.9276 C160.01355,33.4176 157.99305,35.4381 155.50155,35.4381 Z M155.50155,20.4486 C149.71605,20.4486 145.02405,25.1406 145.02405,30.9276 C145.02405,36.7131 149.71605,41.4051 155.50155,41.4051 C161.28705,41.4051 165.97905,36.7131 165.97905,30.9276 C165.97905,25.1406 161.28705,20.4486 155.50155,20.4486 Z M136.55955,20.9496 C133.51755,20.9496 130.99455,22.7121 129.87405,24.3936 C129.07305,22.1121 127.15155,20.9496 124.38855,20.9496 C121.34505,20.9496 118.86105,22.6716 118.02105,23.7936 L118.02105,21.4311 L111.85455,21.4311 L111.85455,40.7706 L118.02105,40.7706 L118.02105,28.2786 C118.66155,27.4776 119.82405,26.3961 121.46505,26.3961 C123.34755,26.3961 124.02855,27.5166 124.02855,28.9986 L124.02855,40.7706 L130.19355,40.7706 L130.19355,28.2786 C130.79355,27.4776 131.99505,26.3961 133.67655,26.3961 C135.52005,26.3961 136.24005,27.5166 136.24005,28.9986 L136.24005,40.7706 L142.36605,40.7706 L142.36605,26.7561 C142.36605,22.7916 140.12355,20.9496 136.55955,20.9496 Z M231.38655,35.4381 C228.89505,35.4381 226.87455,33.4176 226.87455,30.9276 C226.87455,28.4361 228.89505,26.4156 231.38655,26.4156 C233.87655,26.4156 235.89705,28.4361 235.89705,30.9276 C235.89705,33.4176 233.87655,35.4381 231.38655,35.4381 Z M231.38655,20.4486 C225.59955,20.4486 220.90905,25.1406 220.90905,30.9276 C220.90905,36.7131 225.59955,41.4051 231.38655,41.4051 C237.17205,41.4051 241.86255,36.7131 241.86255,30.9276 C241.86255,25.1406 237.17205,20.4486 231.38655,20.4486 Z M221.16555,21.4311 L213.71955,21.4311 L207.83355,29.1576 L207.83355,14.0631 L201.66705,14.0631 L201.66705,40.7706 L207.83355,40.7706 L207.83355,36.1251 L209.67405,33.9231 L213.91905,40.7706 L221.52705,40.7706 L214.03905,30.2391 L221.16555,21.4311 Z M168.77055,40.7706 L174.93555,40.7706 L174.93555,14.0631 L168.77055,14.0631 L168.77055,40.7706 Z M188.21955,35.4381 C185.72805,35.4381 183.70755,33.4176 183.70755,30.9276 C183.70755,28.4361 185.72805,26.4156 188.21955,26.4156 C190.71105,26.4156 192.73005,28.4361 192.73005,30.9276 C192.73005,33.4176 190.71105,35.4381 188.21955,35.4381 Z M188.21955,20.4486 C182.43255,20.4486 177.74205,25.1406 177.74205,30.9276 C177.74205,36.7131 182.43255,41.4051 188.21955,41.4051 C194.00655,41.4051 198.69705,36.7131 198.69705,30.9276 C198.69705,25.1406 194.00655,20.4486 188.21955,20.4486 Z M56.53755,21.4311 L49.08855,21.4311 L43.20405,29.1576 L43.20405,14.0631 L37.03605,14.0631 L37.03605,40.7706 L43.20405,40.7706 L43.20405,36.1251 L45.04455,33.9231 L49.28805,40.7706 L56.89755,40.7706 L49.40955,30.2391 L56.53755,21.4311 Z M23.74755,35.4381 C21.25605,35.4381 19.23555,33.4176 19.23555,30.9276 C19.23555,28.4361 21.25605,26.4156 23.74755,26.4156 C26.23905,26.4156 28.25955,28.4361 28.25955,30.9276 C28.25955,33.4176 26.23905,35.4381 23.74755,35.4381 Z M23.74755,20.4486 C17.96055,20.4486 13.27005,25.1406 13.27005,30.9276 C13.27005,36.7131 17.96055,41.4051 23.74755,41.4051 C29.53455,41.4051 34.22505,36.7131 34.22505,30.9276 C34.22505,25.1406 29.53455,20.4486 23.74755,20.4486 Z M79.38705,40.7706 L85.55205,40.7706 L85.55205,14.0631 L79.38705,14.0631 L79.38705,40.7706 Z M66.16905,35.4381 C63.67905,35.4381 61.65855,33.4176 61.65855,30.9276 C61.65855,28.4361 63.67905,26.4156 66.16905,26.4156 C68.66205,26.4156 70.68105,28.4361 70.68105,30.9276 C70.68105,33.4176 68.66205,35.4381 66.16905,35.4381 Z M66.16905,20.4486 C60.38355,20.4486 55.69305,25.1406 55.69305,30.9276 C55.69305,36.7131 60.38355,41.4051 66.16905,41.4051 C71.95755,41.4051 76.64805,36.7131 76.64805,30.9276 C76.64805,25.1406 71.95755,20.4486 66.16905,20.4486 Z M249.99405,28.0941 C249.99405,37.6716 242.20455,45.4626 232.62855,45.4626 L22.50555,45.4626 C12.92955,45.4626 5.14005,37.6716 5.14005,28.0941 L5.14005,27.8031 C5.14005,18.2271 12.92955,10.4376 22.50555,10.4376 L232.62855,10.4376 C242.20455,10.4376 249.99405,18.2271 249.99405,27.8031 L249.99405,28.0941 Z M232.62855,5.2986 L22.50555,5.2986 C10.09605,5.2986 -0.00045,15.3936 -0.00045,27.8031 L-0.00045,28.0941 C-0.00045,40.5051 10.09605,50.6001 22.50555,50.6001 L232.62855,50.6001 C245.03805,50.6001 255.13305,40.5051 255.13305,28.0941 L255.13305,27.8031 C255.13305,15.3936 245.03805,5.2986 232.62855,5.2986 Z M262.51455,14.5236 C260.83155,14.5236 259.46355,13.1556 259.46355,11.4726 C259.46355,9.7476 261.24705,7.2921 262.52055,5.8116 C262.85805,6.2001 263.26755,6.6921 263.67405,7.2501 C264.89355,8.9136 265.56405,10.4121 265.56405,11.4726 C265.56405,13.1556 264.19605,14.5236 262.51455,14.5236 Z M266.51055,4.4961 C265.07655,2.5371 263.65305,1.1331 263.59305,1.0746 L262.49805,0.0006 L261.41805,1.0896 C261.35805,1.1496 259.94055,2.5851 258.51105,4.5576 C256.48905,7.3446 255.46455,9.7851 255.46455,11.8071 C255.46455,15.6951 258.62655,18.8571 262.51455,18.8571 C266.40105,18.8571 269.56305,15.6951 269.56305,11.8071 C269.56305,9.7206 268.53705,7.2606 266.51055,4.4961 Z" id="Fill-1" fill="#FFFFFF" mask="url(#mask-2)"></path>
        </g>
    </g>
</svg>